{
    "prepare_queue": {
        "installed": [],
        "uninstalled": []
    },
    "config_munge": {
        "files": {}
    },
    "installed_plugins": {
        "cordova-plugin-dialogs": {
            "PACKAGE_NAME": "cl.totalpack.suturno.movil"
        },
        "cordova-plugin-file": {
            "PACKAGE_NAME": "cl.totalpack.suturno.movil"
        },
        "cordova-plugin-geolocation": {
            "PACKAGE_NAME": "cl.totalpack.suturno.movil"
        },
        "cordova-plugin-network-information": {
            "PACKAGE_NAME": "cl.totalpack.suturno.movil"
        },
        "cordova-plugin-splashscreen": {
            "PACKAGE_NAME": "cl.totalpack.suturno.movil"
        },
        "cordova-plugin-statusbar": {
            "PACKAGE_NAME": "cl.totalpack.suturno.movil"
        },
        "cordova-plugin-whitelist": {
            "PACKAGE_NAME": "cl.totalpack.suturno.movil"
        },
        "onesignal-cordova-plugin": {
            "PACKAGE_NAME": "cl.totalpack.suturno.movil"
        },
        "phonegap-plugin-contentsync": {
            "PACKAGE_NAME": "cl.totalpack.suturno.movil"
        }
    },
    "dependent_plugins": {
        "cordova-plugin-compat": {
            "PACKAGE_NAME": "cl.totalpack.suturno.movil"
        }
    }
}